{
  "class": "com.runrev.engine.stack",
  "customPropertySets": {
    "cREVGeneral": {
      "breakpointconditions": "",
      "breakpoints": "",
      "breakpointstates": "",
      "scripteditorselection": "33285",
      "scripteditorvscroll": "10599",
      "stackfileversion": "5.5"
    },
    "cREVGeometryCache": {
      "stackID": "1093"
    },
    "cRevStandaloneSettings": {
      "CopyReferencedFiles": "false",
      "ErrorDialog,comments": "true",
      "ErrorDialog,email": "tate83@gmail.com",
      "ErrorDialog,htmlText": "<h1>Error Report </h1>\nPlease let me know of any errors you may encounter with this Program.",
      "ErrorDialog,save": "true",
      "Linux": "false",
      "MacOS,creator": "????",
      "MacOS,documentType": "",
      "MacOS,longVersion": "AfaConverter 1.0.0.0",
      "MacOS,shortVersion": "1.0.0.0",
      "MacOSX": "false",
      "MacOSX PowerPC-32": "false",
      "MacOSX x86-32": "true",
      "OSX,appicon": "1091",
      "OSX,copyright": "2013 Pascal Lehner. All rights reserved worldwide",
      "OSX,documentExtension": "",
      "OSX,documentIconFile": "logo/logo.icns",
      "OSX,documentType": "",
      "OSX,iconFile": "logo/logo.icns",
      "OSX,identifier": "ch.forall.t8converter",
      "OSX,info": "T8Converter Version 1.0.0.0",
      "OSX,longVersion": "T8Converter 1.0.0.0",
      "OSX,name": "T8Converter",
      "OSX,shortVersion": "1.0.0.0",
      "OSX,signature": "????",
      "OSX,smallappicon": "1091",
      "ReferencedFilesDestination": "Referenced Files",
      "Solaris Intel": "false",
      "Solaris SPARC": "false",
      "UNIX,colorChooser": "true",
      "UNIX,fileSelector": "true",
      "UNIX,pageSetup": "true",
      "UNIX,printerChooser": "true",
      "Windows": "true",
      "Windows,Comments": "",
      "Windows,FileDescription": "T8Converter 1.0.0.0 for Windows",
      "Windows,LegalCopyright": "2013 Pascal Lehner. All rights reserved worldwide",
      "Windows,LegalTrademarks": "(C) 2013 ",
      "Windows,ProductName": "T8Converter",
      "Windows,companyname": "by Pascal Lehner",
      "Windows,copyright": "2013  All rights reserved worldwide",
      "Windows,documenticonFile": "logo/logo.ico",
      "Windows,fileversion1": "1",
      "Windows,fileversion2": "0",
      "Windows,fileversion3": "0",
      "Windows,fileversion4": "0",
      "Windows,iconFile": "logo/logo.ico",
      "Windows,productversion1": "1",
      "Windows,productversion2": "0",
      "Windows,productversion3": "0",
      "Windows,productversion4": "0",
      "android": "false",
      "answerDialog": "true",
      "askDialog": "true",
      "cursors": "false",
      "defaultBuildFolder": "/Users/tate83/Documents/IT/LiveCode/Apps/t8converter/builds",
      "errorDialog": "false",
      "files": "COPYING\nREADME.md",
      "inclusions": "search",
      "ios": "false",
      "name": "T8Converter",
      "scriptLibraries": "Internet\nGeometry\nPrinting"
    },
    "customKeys": {
      "cDev": "nodev",
      "cPicturePath": "http://www.forall.ch/pimages/",
      "cServerPath": "http://www.forall.ch/pdata/",
      "cSourceFileContent": "",
      "cSourceFilePath": "",
      "cTargetFolderPath": "",
      "cUserOS": ""
    }
  },
  "properties": {
    "alwaysBuffer": "true",
    "height": "570",
    "name": "T8Converter",
    "resizable": "false",
    "textFont": "Arial",
    "textSize": "12",
    "unicodeTitle": "T8Converter",
    "width": "950"
  },
  "uuid": "06C80F76-420A-4489-91CE-1E4AAA44F7DE"
}