{
  "class": "com.runrev.engine.button",
  "customPropertySets": {
    "cREVGeneral": {
      "revUniqueID": "1371114911437",
      "scripteditorselection": "14",
      "scripteditorvscroll": "0"
    }
  },
  "properties": {
    "default": "true",
    "id": "1050",
    "layer": "13",
    "lockLoc": "true",
    "name": "BtnCancel",
    "rect": "50,360,150,383",
    "textFont": "Arial",
    "textSize": "12",
    "unicodeLabel": "Abbrechen",
    "unicodeToolTip": "Entfernt alle geladenen Dateien.",
    "visible": "false"
  },
  "uuid": "7EAB88A4-2203-4AB0-8FFA-45E68D251D2D"
}