{
  "class": "com.runrev.engine.button",
  "customPropertySets": {
    "cREVGeneral": {
      "revUniqueID": "1371720766990",
      "scripteditorselection": "49",
      "scripteditorvscroll": "0"
    }
  },
  "properties": {
    "default": "true",
    "id": "1075",
    "layer": "19",
    "lockLoc": "true",
    "name": "BtnAnleitung",
    "rect": "50,240,150,263",
    "unicodeLabel": "Anleitung ",
    "unicodeToolTip": "Anleitung anzeigen"
  },
  "uuid": "04F62D0D-F6CD-4E1B-9F0F-0BCB36DBC94A"
}