{
  "class": "com.runrev.engine.button",
  "customPropertySets": {
    "cREVGeneral": {
      "revUniqueID": "1371115050260",
      "scripteditorselection": "79",
      "scripteditorvscroll": "0"
    }
  },
  "properties": {
    "default": "true",
    "id": "1052",
    "layer": "14",
    "name": "BtnShowXML",
    "rect": "772,166,854,189",
    "unicodeLabel": "Show XML",
    "unicodeToolTip": "Only visible in Development"
  },
  "uuid": "7DE6467A-986D-436D-9D56-A288F770EC51"
}