{
  "class": "com.runrev.engine.button",
  "customPropertySets": {
    "cREVGeneral": {
      "revUniqueID": "1371111774877",
      "scripteditorselection": "721",
      "scripteditorvscroll": "0"
    }
  },
  "properties": {
    "default": "true",
    "id": "1049",
    "layer": "12",
    "lockLoc": "true",
    "name": "BtnChooseTarget",
    "rect": "175,180,275,203",
    "textFont": "Arial",
    "textSize": "12",
    "unicodeLabel": "base64Decode(T3JkbmVyIHfDpGhsZW4=)"
  },
  "uuid": "8D74C11D-7C7A-42C7-BDEC-9DDE83607A66"
}