{
  "class": "com.runrev.engine.button",
  "customPropertySets": {
    "cREVGeneral": {
      "revUniqueID": "1371111234675",
      "scripteditorselection": "41",
      "scripteditorvscroll": "0"
    }
  },
  "properties": {
    "default": "true",
    "id": "1012",
    "layer": "3",
    "lockLoc": "true",
    "name": "BtnPurgeLog",
    "rect": "50,320,150,343",
    "textFont": "Arial",
    "textSize": "12",
    "unicodeLabel": "Logdatei leeren",
    "unicodeToolTip": "Leert das Fenster \"Meldungen\""
  },
  "uuid": "691B6036-A111-4401-84DB-89FE83195423"
}