{
  "class": "com.runrev.engine.field",
  "customPropertySets": {
    "cREVGeneral": {
      "revUniqueID": "1371111774801"
    }
  },
  "properties": {
    "id": "1048",
    "layer": "11",
    "lockLoc": "true",
    "name": "FldTargetPath",
    "rect": "300,180,700,203",
    "textFont": "Arial",
    "textSize": "12"
  },
  "uuid": "8E6A4A58-457B-47F5-8FA7-F0A1ECA9E1F4"
}