{
  "class": "com.runrev.engine.field",
  "customPropertySets": {
    "cREVGeneral": {
      "revUniqueID": "1371655119075"
    },
    "cREVTable": {
      "currentview": "<p>1. Datenpfad zum Wikimedia XML File ausw&auml;hlen</p>\n<p>2. Zielpfad ausw&auml;hlen. Da werden index.html Dateien erstellt. Die einzelnen Personendateien werden im Unterordner /personnes/ erstellt. </p>\n<p>    Die CSS-Datei muss auf der selben Ebene wie die Index-Dateien liegen. Diese wird leer erstellt, falls keine vorhanden ist.</p>\n<p></p>\n<p>3. Konvertieren. Achtung: Dies &uuml;berschreibt alle am Zielpfad bestehenden Dateien gleichen Namens (ausser afastyle.css)!</p>\n<p></p>\n<p>4. Pr&uuml;fen:</p>\n<p>   - am besten mit einem Check-Tool die Dateien auf tote Links pr&uuml;fen</p>\n<p></p>\n<p>5. Alle Dateien hochladen in den definierten Serverpfad. Der Server-Dateien und Server-Bildpfad kann im Quelltext des Programms angepasst werden.</p>\n<p>  - im Stammordner sind index.html, a.html, b.html, ..., z.html, afastyle.css und der Ordner personnes wo alle Personendateien ohne weitere </p>\n<p>    Unterordner liegen. Bei einer Aktualisierung k&ouml;nnen diese bestehenden Dateien &uuml;berschrieben und somit aktualisiert werden.</p>\n<p>   - Die Bilder mit dem im Wiki definierten Bildname m&uuml;ssen alle in denselben, vordefinierten Ordner hochgeladen werden.</p>\n<p></p>\n<p></p>\n<p>6. Weiteres:</p>\n<p>-   Der Button \"Log l&ouml;schen\" leert das Eingabefeld der Logmeldungen, ansonsten wird nichts ver&auml;ndert. Sollte nach jedem Durchgang gemacht werden.</p>\n<p>-   Eine ausf&uuml;hrliche Dokumentation, der Sourcecode und die Lizenzbedingungen sind online verf&uuml;gbar.</p>"
    }
  },
  "properties": {
    "autoHilite": "false",
    "dontWrap": "true",
    "htmlText": "<p>1. Datenpfad zum Wikimedia XML File ausw&auml;hlen</p>\n<p>2. Zielpfad ausw&auml;hlen. Da werden index.html Dateien erstellt. Die einzelnen Personendateien werden im Unterordner /personnes/ erstellt. </p>\n<p>    Die CSS-Datei muss auf der selben Ebene wie die Index-Dateien liegen. Diese wird leer erstellt, falls keine vorhanden ist.</p>\n<p></p>\n<p>3. Konvertieren. Achtung: Dies &uuml;berschreibt alle am Zielpfad bestehenden Dateien gleichen Namens (ausser afastyle.css)!</p>\n<p></p>\n<p>4. Pr&uuml;fen:</p>\n<p>   - am besten mit einem Check-Tool die Dateien auf tote Links pr&uuml;fen</p>\n<p></p>\n<p>5. Alle Dateien hochladen in den definierten Serverpfad. Der Server-Dateien und Server-Bildpfad kann im Quelltext des Programms angepasst werden.</p>\n<p>  - im Stammordner sind index.html, a.html, b.html, ..., z.html, afastyle.css und der Ordner personnes wo alle Personendateien ohne weitere </p>\n<p>    Unterordner liegen. Bei einer Aktualisierung k&ouml;nnen diese bestehenden Dateien &uuml;berschrieben und somit aktualisiert werden.</p>\n<p>   - Die Bilder mit dem im Wiki definierten Bildname m&uuml;ssen alle in denselben, vordefinierten Ordner hochgeladen werden.</p>\n<p></p>\n<p></p>\n<p>6. Weiteres:</p>\n<p>-   Der Button \"Log l&ouml;schen\" leert das Eingabefeld der Logmeldungen, ansonsten wird nichts ver&auml;ndert. Sollte nach jedem Durchgang gemacht werden.</p>\n<p>-   Eine ausf&uuml;hrliche Dokumentation, der Sourcecode und die Lizenzbedingungen sind online verf&uuml;gbar.</p>",
    "id": "1069",
    "layer": "3",
    "listBehavior": "true",
    "lockLoc": "true",
    "lockText": "true",
    "multipleHilites": "true",
    "name": "Label Field",
    "opaque": "false",
    "rect": "25,150,925,500",
    "sharedText": "true",
    "showBorder": "false",
    "style": "transparent",
    "textFont": "Arial",
    "textSize": "12",
    "traversalOn": "false"
  },
  "uuid": "2228ABCD-A3B1-4C7E-BD1D-00BF60FC54AD"
}